数电_实验报告/paomadeng/simulation/qsim/paomadeng.msim.vcd
$comment
	File created using the following command:
		vcd file paomadeng.msim.vcd -direction
$end
$date
	Wed Jun 27 16:01:32 2018
$end
$version
	ModelSim Version 10.5b
$end
$timescale
	1ps
$end

$scope module led_vhd_vec_tst $end
$var wire 1 ! clk $end
$var wire 1 " q [7] $end
$var wire 1 # q [6] $end
$var wire 1 $ q [5] $end
$var wire 1 % q [4] $end
$var wire 1 & q [3] $end
$var wire 1 ' q [2] $end
$var wire 1 ( q [1] $end
$var wire 1 ) q [0] $end
$var wire 1 * rst $end

$scope module i1 $end
$var wire 1 + gnd $end
$var wire 1 , vcc $end
$var wire 1 - unknown $end
$var wire 1 . devoe $end
$var wire 1 / devclrn $end
$var wire 1 0 devpor $end
$var wire 1 1 ww_devoe $end
$var wire 1 2 ww_devclrn $end
$var wire 1 3 ww_devpor $end
$var wire 1 4 ww_clk $end
$var wire 1 5 ww_rst $end
$var wire 1 6 ww_q [7] $end
$var wire 1 7 ww_q [6] $end
$var wire 1 8 ww_q [5] $end
$var wire 1 9 ww_q [4] $end
$var wire 1 : ww_q [3] $end
$var wire 1 ; ww_q [2] $end
$var wire 1 < ww_q [1] $end
$var wire 1 = ww_q [0] $end
$var wire 1 > \rst~inputclkctrl_INCLK_bus\ [3] $end
$var wire 1 ? \rst~inputclkctrl_INCLK_bus\ [2] $end
$var wire 1 @ \rst~inputclkctrl_INCLK_bus\ [1] $end
$var wire 1 A \rst~inputclkctrl_INCLK_bus\ [0] $end
$var wire 1 B \clk~inputclkctrl_INCLK_bus\ [3] $end
$var wire 1 C \clk~inputclkctrl_INCLK_bus\ [2] $end
$var wire 1 D \clk~inputclkctrl_INCLK_bus\ [1] $end
$var wire 1 E \clk~inputclkctrl_INCLK_bus\ [0] $end
$var wire 1 F \q[0]~output_o\ $end
$var wire 1 G \q[1]~output_o\ $end
$var wire 1 H \q[2]~output_o\ $end
$var wire 1 I \q[3]~output_o\ $end
$var wire 1 J \q[4]~output_o\ $end
$var wire 1 K \q[5]~output_o\ $end
$var wire 1 L \q[6]~output_o\ $end
$var wire 1 M \q[7]~output_o\ $end
$var wire 1 N \clk~input_o\ $end
$var wire 1 O \clk~inputclkctrl_outclk\ $end
$var wire 1 P \count[0]~4_combout\ $end
$var wire 1 Q \Selector2~2_combout\ $end
$var wire 1 R \Selector1~0_combout\ $end
$var wire 1 S \Selector0~2_combout\ $end
$var wire 1 T \Selector0~0_combout\ $end
$var wire 1 U \Selector0~1_combout\ $end
$var wire 1 V \Selector0~3_combout\ $end
$var wire 1 W \rst~input_o\ $end
$var wire 1 X \rst~inputclkctrl_outclk\ $end
$var wire 1 Y \q1~8_combout\ $end
$var wire 1 Z \Selector1~1_combout\ $end
$var wire 1 [ \Selector1~2_combout\ $end
$var wire 1 \ \Selector2~3_combout\ $end
$var wire 1 ] \Selector2~4_combout\ $end
$var wire 1 ^ \Selector2~5_combout\ $end
$var wire 1 _ \q1~7_combout\ $end
$var wire 1 ` \q1[3]~6_combout\ $end
$var wire 1 a \q1[3]~5_combout\ $end
$var wire 1 b \Selector3~0_combout\ $end
$var wire 1 c \q1~2_combout\ $end
$var wire 1 d \Selector3~combout\ $end
$var wire 1 e \Equal0~0_combout\ $end
$var wire 1 f \count[0]~0_combout\ $end
$var wire 1 g \Selector12~0_combout\ $end
$var wire 1 h \present.s0~q\ $end
$var wire 1 i \count[0]~1_combout\ $end
$var wire 1 j \count[0]~2_combout\ $end
$var wire 1 k \Selector10~0_combout\ $end
$var wire 1 l \Selector9~2_combout\ $end
$var wire 1 m \Add0~0_combout\ $end
$var wire 1 n \Selector8~0_combout\ $end
$var wire 1 o \Equal1~0_combout\ $end
$var wire 1 p \Selector13~2_combout\ $end
$var wire 1 q \Selector13~4_combout\ $end
$var wire 1 r \present.s1~q\ $end
$var wire 1 s \Selector14~0_combout\ $end
$var wire 1 t \present.s2~q\ $end
$var wire 1 u \q1[3]~4_combout\ $end
$var wire 1 v \q1~3_combout\ $end
$var wire 1 w \q1~1_combout\ $end
$var wire 1 x \Selector6~0_combout\ $end
$var wire 1 y \Selector13~3_combout\ $end
$var wire 1 z \q1~0_combout\ $end
$var wire 1 { \Selector6~1_combout\ $end
$var wire 1 | \Selector6~2_combout\ $end
$var wire 1 } \Selector5~2_combout\ $end
$var wire 1 ~ \Selector5~3_combout\ $end
$var wire 1 !! \Selector5~4_combout\ $end
$var wire 1 "! \Selector4~0_combout\ $end
$var wire 1 #! \Selector4~combout\ $end
$var wire 1 $! \Equal0~1_combout\ $end
$var wire 1 %! \count[0]~3_combout\ $end
$var wire 1 &! \Equal2~0_combout\ $end
$var wire 1 '! \present.s3~0_combout\ $end
$var wire 1 (! \present.s3~q\ $end
$var wire 1 )! \Selector7~2_combout\ $end
$var wire 1 *! \Selector7~1_combout\ $end
$var wire 1 +! \Selector7~0_combout\ $end
$var wire 1 ,! \Selector7~3_combout\ $end
$var wire 1 -! q1 [7] $end
$var wire 1 .! q1 [6] $end
$var wire 1 /! q1 [5] $end
$var wire 1 0! q1 [4] $end
$var wire 1 1! q1 [3] $end
$var wire 1 2! q1 [2] $end
$var wire 1 3! q1 [1] $end
$var wire 1 4! q1 [0] $end
$var wire 1 5! count [3] $end
$var wire 1 6! count [2] $end
$var wire 1 7! count [1] $end
$var wire 1 8! count [0] $end
$var wire 1 9! \ALT_INV_rst~inputclkctrl_outclk\ $end
$upscope $end
$upscope $end
$enddefinitions $end
#0
$dumpvars
0!
1*
0+
1,
x-
1.
1/
10
11
12
13
04
15
0F
0G
0H
0I
0J
0K
0L
0M
0N
0O
1P
1Q
0R
0S
0T
0U
1V
1W
1X
0Y
0Z
0[
0\
0]
0^
0_
0`
0a
1b
0c
0d
1e
1f
0g
0h
1i
0j
0k
0l
0m
0n
0o
0p
0q
0r
0s
0t
0u
0v
0w
0x
0y
0z
0{
0|
0}
0~
0!!
1"!
0#!
1$!
0%!
0&!
0'!
0(!
0)!
0*!
0+!
0,!
09!
0"
0#
0$
0%
0&
0'
0(
0)
06
07
08
09
0:
0;
0<
0=
0-!
0.!
0/!
00!
01!
02!
03!
04!
05!
06!
07!
08!
1B
1C
1D
0E
1>
1?
1@
1A
$end
#10000
1!
14
1N
1E
1O
#20000
0!
0*
04
05
0W
0N
0A
0E
0O
0X
19!
#30000
1!
14
1N
1E
1O
1-!
1Y
1Z
0e
0f
1p
1%!
1[
1M
0V
16
1"
#40000
0!
04
0N
0E
0O
#50000
1!
14
1N
1E
1O
0-!
1.!
18!
0P
1k
1]
0Y
0Z
0[
1^
1L
0M
17
06
1#
0"
#60000
0!
04
0N
0E
0O
#70000
1!
14
1N
1E
1O
0.!
1/!
17!
08!
1P
1_
0]
0^
1d
1K
0L
18
07
1$
0#
#80000
0!
04
0N
0E
0O
#90000
1!
14
1N
1E
1O
0/!
10!
18!
0P
0k
1l
1m
1&!
1v
0_
0d
1#!
1J
0K
19
08
1%
0$
#100000
0!
04
0N
0E
0O
#110000
1!
14
1N
1E
1O
00!
07!
16!
11!
08!
1P
1c
0$!
1n
0m
0&!
1e
0v
0#!
0n
1~
1I
0J
1!!
1:
09
1&
0%
#120000
0!
04
0N
0E
0O
#130000
1!
14
1N
1E
1O
12!
01!
18!
0P
1k
0c
1z
1{
0~
0I
1H
0!!
1|
0:
1;
1'
0&
#140000
0!
04
0N
0E
0O
#150000
1!
14
1N
1E
1O
17!
13!
02!
08!
1P
0z
1+!
1,!
0{
0H
1G
0|
0;
1<
1(
0'
#160000
0!
04
0N
0E
0O
#170000
1!
14
1N
1E
1O
03!
18!
14!
1U
1w
0P
0k
0l
1m
1o
0+!
0,!
0Q
0U
1j
1q
1+!
1n
1V
1F
0G
1,!
0n
0V
1g
1=
0<
1)
0(
#180000
0!
04
0N
0E
0O
#190000
1!
14
1N
1E
1O
1h
07!
06!
1r
08!
1P
1`
1s
1*!
0m
0o
1U
0p
1V
0U
0j
0s
1y
0*!
0+!
0b
0"!
0,!
1{
0V
1|
#200000
0!
04
0N
0E
0O
#210000
1!
14
1N
1E
1O
13!
18!
04!
0w
0{
0P
1k
1!!
0|
0F
1G
0=
1<
0)
1(
#220000
0!
04
0N
0E
0O
#230000
1!
14
1N
1E
1O
17!
03!
12!
08!
1P
1z
0!!
1#!
1H
0G
1;
0<
0(
1'
#240000
0!
04
0N
0E
0O
#250000
1!
14
1N
1E
1O
02!
11!
18!
0P
0k
1l
1m
1&!
1c
0z
0#!
1d
1I
0H
1:
0;
0'
1&
#260000
0!
04
0N
0E
0O
#270000
1!
14
1N
1E
1O
10!
07!
16!
01!
08!
1P
0c
1$!
1n
0m
0&!
1^
0e
1v
0n
0d
0I
1J
0:
19
0&
1%
#280000
0!
04
0N
0E
0O
#290000
1!
14
1N
1E
1O
1/!
00!
18!
0P
1k
0^
0v
1_
1Z
0J
1K
1[
09
18
0%
1$
#300000
0!
04
0N
0E
0O
#310000
1!
14
1N
1E
1O
1.!
0/!
17!
08!
1P
0_
1S
1V
0Z
0K
1L
0[
08
17
0$
1#
#320000
0!
04
0N
0E
0O
#330000
1!
14
1N
1E
1O
1-!
0.!
18!
0P
0k
0l
1m
1o
0S
1Y
1*!
1,!
0V
1U
1j
0q
1s
0y
1n
0L
1M
0n
1V
07
16
0#
1"
#340000
0!
04
0N
0E
0O
#350000
1!
14
1N
1E
1O
07!
06!
0r
1t
08!
14!
1w
0$!
1P
1[
1a
1u
0U
0`
0i
0*!
0m
0o
0,!
0V
0j
1|
1F
1=
1)
#360000
0!
04
0N
0E
0O
#370000
1!
14
1N
1E
1O
0-!
1.!
13!
18!
04!
0w
0P
1k
1}
1\
0Y
0[
1]
1~
0|
0F
1G
1L
0M
1!!
1^
0=
1<
17
06
0)
1(
1#
0"
#380000
0!
04
0N
0E
0O
#390000
1!
14
1N
1E
1O
0.!
1/!
17!
03!
12!
08!
1P
1z
1"!
0}
1_
1b
0\
0]
1d
0~
1#!
1H
0G
1K
0L
0!!
0^
1;
0<
18
07
0(
1'
1$
0#
#400000
0!
04
0N
0E
0O
#410000
1!
14
1N
1E
1O
0/!
10!
02!
11!
18!
0P
0k
1l
1m
1&!
1c
1)!
0z
0"!
1T
1v
0_
0b
1V
0#!
0d
0T
0a
1j
0s
1'!
1I
0H
1J
0K
0l
1b
1"!
0V
1:
0;
19
08
0'
1&
1%
0$
1#!
1d
#420000
0!
04
0N
0E
0O
#430000
1!
14
1N
1E
1O
07!
0t
08!
1(!
0g
1P
1T
1\
1`
1a
1}
0'!
0)!
0m
0&!
0T
1g
0j
1'!
1~
0b
0"!
1]
1V
1^
0#!
0d
1!!
0V
#440000
0!
04
0N
0E
0O
#450000
1!
14
1N
1E
1O
1/!
00!
12!
01!
18!
0P
1k
0c
0}
1x
1z
0\
0v
1R
1_
1[
0]
1|
0~
0I
1H
0J
1K
0!!
0^
0:
1;
09
18
1'
0&
0%
1$
#460000
0!
04
0N
0E
0O
#470000
1!
14
1N
1E
1O
1.!
0/!
17!
13!
02!
08!
1P
0x
0z
1)!
0R
0_
1S
1V
0[
1,!
0|
0H
1G
0K
1L
0;
1<
08
17
1(
0'
0$
1#
#480000
0!
04
0N
0E
0O
#490000
1!
14
1N
1E
1O
1-!
0.!
03!
18!
14!
1w
0P
0k
1l
1m
1&!
0)!
0S
1Y
1b
0V
1T
0Y
0g
1j
0w
0'!
0,!
1"!
1F
0G
0L
1M
1#!
0"!
0l
0b
1V
1d
1=
0<
07
16
1)
0(
0#
1"
0d
0#!
#500000
0!
04
0N
0E
0O
#510000
1!
14
1N
1E
1O
0h
07!
08!
0(!
04!
1$!
0T
0`
0a
1g
0u
1P
0m
0&!
1Q
1i
1p
1Z
1Y
0g
0j
1b
1"!
0V
0F
1[
0=
0)
#520000
0!
04
0N
0E
0O
#530000
1!
14
1N
1E
1O
0-!
1.!
18!
0P
1k
1]
0Y
0Z
0[
1^
1L
0M
17
06
1#
0"
#540000
0!
04
0N
0E
0O
#550000
1!
14
1N
1E
1O
0.!
1/!
17!
08!
1P
1_
0]
0^
1d
1K
0L
18
07
1$
0#
#560000
0!
04
0N
0E
0O
#570000
1!
14
1N
1E
1O
0/!
10!
18!
0P
0k
1l
1m
1&!
1v
0_
0d
1#!
1J
0K
19
08
1%
0$
#580000
0!
04
0N
0E
0O
#590000
1!
14
1N
1E
1O
00!
07!
16!
11!
08!
1P
1c
0$!
1n
0m
0&!
1e
0v
0#!
0n
1~
1I
0J
1!!
1:
09
1&
0%
#600000
0!
04
0N
0E
0O
#610000
1!
14
1N
1E
1O
12!
01!
18!
0P
1k
0c
1z
1{
0~
0I
1H
0!!
1|
0:
1;
1'
0&
#620000
0!
04
0N
0E
0O
#630000
1!
14
1N
1E
1O
17!
13!
02!
08!
1P
0z
1+!
1,!
0{
0H
1G
0|
0;
1<
1(
0'
#640000
0!
04
0N
0E
0O
#650000
1!
14
1N
1E
1O
03!
18!
14!
1U
1w
0P
0k
0l
1m
1o
0+!
0,!
0Q
0U
1j
1q
1+!
1n
1V
1F
0G
1,!
0n
0V
1g
1=
0<
1)
0(
#660000
0!
04
0N
0E
0O
#670000
1!
14
1N
1E
1O
1h
07!
06!
1r
08!
1P
1`
1s
1*!
0m
0o
1U
0p
1V
0U
0j
0s
1y
0*!
0+!
0b
0"!
0,!
1{
0V
1|
#680000
0!
04
0N
0E
0O
#690000
1!
14
1N
1E
1O
13!
18!
04!
0w
0{
0P
1k
1!!
0|
0F
1G
0=
1<
0)
1(
#700000
0!
04
0N
0E
0O
#710000
1!
14
1N
1E
1O
17!
03!
12!
08!
1P
1z
0!!
1#!
1H
0G
1;
0<
0(
1'
#720000
0!
04
0N
0E
0O
#730000
1!
14
1N
1E
1O
02!
11!
18!
0P
0k
1l
1m
1&!
1c
0z
0#!
1d
1I
0H
1:
0;
0'
1&
#740000
0!
04
0N
0E
0O
#750000
1!
14
1N
1E
1O
10!
07!
16!
01!
08!
1P
0c
1$!
1n
0m
0&!
1^
0e
1v
0n
0d
0I
1J
0:
19
0&
1%
#760000
0!
04
0N
0E
0O
#770000
1!
14
1N
1E
1O
1/!
00!
18!
0P
1k
0^
0v
1_
1Z
0J
1K
1[
09
18
0%
1$
#780000
0!
04
0N
0E
0O
#790000
1!
14
1N
1E
1O
1.!
0/!
17!
08!
1P
0_
1S
1V
0Z
0K
1L
0[
08
17
0$
1#
#800000
0!
04
0N
0E
0O
#810000
1!
14
1N
1E
1O
1-!
0.!
18!
0P
0k
0l
1m
1o
0S
1Y
1*!
1,!
0V
1U
1j
0q
1s
0y
1n
0L
1M
0n
1V
07
16
0#
1"
#820000
0!
04
0N
0E
0O
#830000
1!
14
1N
1E
1O
07!
06!
0r
1t
08!
14!
1w
0$!
1P
1[
1a
1u
0U
0`
0i
0*!
0m
0o
0,!
0V
0j
1|
1F
1=
1)
#840000
0!
04
0N
0E
0O
#850000
1!
14
1N
1E
1O
0-!
1.!
13!
18!
04!
0w
0P
1k
1}
1\
0Y
0[
1]
1~
0|
0F
1G
1L
0M
1!!
1^
0=
1<
17
06
0)
1(
1#
0"
#860000
0!
04
0N
0E
0O
#870000
1!
14
1N
1E
1O
0.!
1/!
17!
03!
12!
08!
1P
1z
1"!
0}
1_
1b
0\
0]
1d
0~
1#!
1H
0G
1K
0L
0!!
0^
1;
0<
18
07
0(
1'
1$
0#
#880000
0!
04
0N
0E
0O
#890000
1!
14
1N
1E
1O
0/!
10!
02!
11!
18!
0P
0k
1l
1m
1&!
1c
1)!
0z
0"!
1T
1v
0_
0b
1V
0#!
0d
0T
0a
1j
0s
1'!
1I
0H
1J
0K
0l
1b
1"!
0V
1:
0;
19
08
0'
1&
1%
0$
1#!
1d
#900000
0!
04
0N
0E
0O
#910000
1!
14
1N
1E
1O
07!
0t
08!
1(!
0g
1P
1T
1\
1`
1a
1}
0'!
0)!
0m
0&!
0T
1g
0j
1'!
1~
0b
0"!
1]
1V
1^
0#!
0d
1!!
0V
#920000
0!
04
0N
0E
0O
#930000
1!
14
1N
1E
1O
1/!
00!
12!
01!
18!
0P
1k
0c
0}
1x
1z
0\
0v
1R
1_
1[
0]
1|
0~
0I
1H
0J
1K
0!!
0^
0:
1;
09
18
1'
0&
0%
1$
#940000
0!
04
0N
0E
0O
#950000
1!
14
1N
1E
1O
1.!
0/!
17!
13!
02!
08!
1P
0x
0z
1)!
0R
0_
1S
1V
0[
1,!
0|
0H
1G
0K
1L
0;
1<
08
17
1(
0'
0$
1#
#960000
0!
04
0N
0E
0O
#970000
1!
14
1N
1E
1O
1-!
0.!
03!
18!
14!
1w
0P
0k
1l
1m
1&!
0)!
0S
1Y
1b
0V
1T
0Y
0g
1j
0w
0'!
0,!
1"!
1F
0G
0L
1M
1#!
0"!
0l
0b
1V
1d
1=
0<
07
16
1)
0(
0#
1"
0d
0#!
#980000
0!
04
0N
0E
0O
#990000
1!
14
1N
1E
1O
0h
07!
08!
0(!
04!
1$!
0T
0`
0a
1g
0u
1P
0m
0&!
1Q
1i
1p
1Z
1Y
0g
0j
1b
1"!
0V
0F
1[
0=
0)
