数电_实验报告/8byte-shumasaomiao/simulation/qsim/shumaguan.msim.vcd
$comment
	File created using the following command:
		vcd file shumaguan.msim.vcd -direction
$end
$date
	Fri Jul 13 09:25:24 2018
$end
$version
	ModelSim Version 10.5b
$end
$timescale
	1ps
$end

$scope module scan_led_vhd_vec_tst $end
$var wire 1 ! clk $end
$var wire 1 " scan [7] $end
$var wire 1 # scan [6] $end
$var wire 1 $ scan [5] $end
$var wire 1 % scan [4] $end
$var wire 1 & scan [3] $end
$var wire 1 ' scan [2] $end
$var wire 1 ( scan [1] $end
$var wire 1 ) scan [0] $end
$var wire 1 * seg [7] $end
$var wire 1 + seg [6] $end
$var wire 1 , seg [5] $end
$var wire 1 - seg [4] $end
$var wire 1 . seg [3] $end
$var wire 1 / seg [2] $end
$var wire 1 0 seg [1] $end
$var wire 1 1 seg [0] $end

$scope module i1 $end
$var wire 1 2 gnd $end
$var wire 1 3 vcc $end
$var wire 1 4 unknown $end
$var wire 1 5 devoe $end
$var wire 1 6 devclrn $end
$var wire 1 7 devpor $end
$var wire 1 8 ww_devoe $end
$var wire 1 9 ww_devclrn $end
$var wire 1 : ww_devpor $end
$var wire 1 ; ww_clk $end
$var wire 1 < ww_seg [7] $end
$var wire 1 = ww_seg [6] $end
$var wire 1 > ww_seg [5] $end
$var wire 1 ? ww_seg [4] $end
$var wire 1 @ ww_seg [3] $end
$var wire 1 A ww_seg [2] $end
$var wire 1 B ww_seg [1] $end
$var wire 1 C ww_seg [0] $end
$var wire 1 D ww_scan [7] $end
$var wire 1 E ww_scan [6] $end
$var wire 1 F ww_scan [5] $end
$var wire 1 G ww_scan [4] $end
$var wire 1 H ww_scan [3] $end
$var wire 1 I ww_scan [2] $end
$var wire 1 J ww_scan [1] $end
$var wire 1 K ww_scan [0] $end
$var wire 1 L \clk~inputclkctrl_INCLK_bus\ [3] $end
$var wire 1 M \clk~inputclkctrl_INCLK_bus\ [2] $end
$var wire 1 N \clk~inputclkctrl_INCLK_bus\ [1] $end
$var wire 1 O \clk~inputclkctrl_INCLK_bus\ [0] $end
$var wire 1 P \seg[0]~output_o\ $end
$var wire 1 Q \seg[1]~output_o\ $end
$var wire 1 R \seg[2]~output_o\ $end
$var wire 1 S \seg[3]~output_o\ $end
$var wire 1 T \seg[4]~output_o\ $end
$var wire 1 U \seg[5]~output_o\ $end
$var wire 1 V \seg[6]~output_o\ $end
$var wire 1 W \seg[7]~output_o\ $end
$var wire 1 X \scan[0]~output_o\ $end
$var wire 1 Y \scan[1]~output_o\ $end
$var wire 1 Z \scan[2]~output_o\ $end
$var wire 1 [ \scan[3]~output_o\ $end
$var wire 1 \ \scan[4]~output_o\ $end
$var wire 1 ] \scan[5]~output_o\ $end
$var wire 1 ^ \scan[6]~output_o\ $end
$var wire 1 _ \scan[7]~output_o\ $end
$var wire 1 ` \clk~input_o\ $end
$var wire 1 a \clk~inputclkctrl_outclk\ $end
$var wire 1 b \cnt8[0]~2_combout\ $end
$var wire 1 c \cnt8[1]~0_combout\ $end
$var wire 1 d \Mux7~0_combout\ $end
$var wire 1 e \cnt8[2]~1_combout\ $end
$var wire 1 f \Mux17~0_combout\ $end
$var wire 1 g \Mux16~0_combout\ $end
$var wire 1 h \Mux15~0_combout\ $end
$var wire 1 i \Mux14~0_combout\ $end
$var wire 1 j \Mux13~0_combout\ $end
$var wire 1 k \Mux12~0_combout\ $end
$var wire 1 l \Mux7~1_combout\ $end
$var wire 1 m \Mux7~2_combout\ $end
$var wire 1 n \Mux7~3_combout\ $end
$var wire 1 o \Mux7~4_combout\ $end
$var wire 1 p \Mux7~5_combout\ $end
$var wire 1 q \Mux7~6_combout\ $end
$var wire 1 r \Mux7~7_combout\ $end
$var wire 1 s \Mux7~8_combout\ $end
$var wire 1 t cnt8 [2] $end
$var wire 1 u cnt8 [1] $end
$var wire 1 v cnt8 [0] $end
$var wire 1 w \ALT_INV_Mux12~0_combout\ $end
$var wire 1 x \ALT_INV_Mux13~0_combout\ $end
$var wire 1 y \ALT_INV_Mux14~0_combout\ $end
$var wire 1 z \ALT_INV_Mux15~0_combout\ $end
$var wire 1 { \ALT_INV_Mux16~0_combout\ $end
$var wire 1 | \ALT_INV_Mux7~0_combout\ $end
$upscope $end
$upscope $end
$enddefinitions $end
#0
$dumpvars
0!
02
13
x4
15
16
17
18
19
1:
0;
0P
0Q
0R
0S
0T
1U
1V
0W
1X
0Y
0Z
0[
0\
0]
0^
0_
0`
0a
1b
0c
1d
0e
0f
1g
1h
0i
0j
1k
1l
0m
0n
0o
0p
0q
0r
0s
0w
1x
1y
0z
0{
0|
0*
1+
1,
0-
0.
0/
00
01
0"
0#
0$
0%
0&
0'
0(
1)
0<
1=
1>
0?
0@
0A
0B
0C
0D
0E
0F
0G
0H
0I
0J
1K
0t
0u
0v
1L
1M
1N
0O
$end
#10000
1!
1;
1`
1O
1a
1v
0b
1c
0d
0g
0h
1i
0k
0l
1m
1w
0y
1z
1{
1|
1Y
0X
1Q
1S
1T
0U
1W
1J
0K
1B
1@
1?
0>
1<
0)
1(
10
1.
1-
0,
1*
#20000
0!
0;
0`
0O
0a
#30000
1!
1;
1`
1O
1a
0v
1u
1b
1f
1g
1h
0i
1k
0m
1n
0w
1y
0z
0{
1Z
0Y
1R
0S
0T
1U
0W
1I
0J
1A
0@
0?
1>
0<
0(
1'
1/
0.
0-
1,
0*
#40000
0!
0;
0`
0O
0a
#50000
1!
1;
1`
1O
1a
1v
0b
0c
1e
0h
1j
0k
0n
1o
1w
0x
1z
1[
0Z
1T
0V
1W
1H
0I
1?
0=
1<
0'
1&
1-
0+
1*
#60000
0!
0;
0`
0O
0a
#70000
1!
1;
1`
1O
1a
0v
0u
1t
1b
1d
0f
1h
0j
0o
1p
1x
0z
0|
1\
0[
0R
0Q
0T
1V
1G
0H
0A
0B
0?
1=
0&
1%
0/
00
0-
1+
#80000
0!
0;
0`
0O
0a
#90000
1!
1;
1`
1O
1a
1v
0b
1c
0d
1f
0h
0p
1q
1z
1|
1]
0\
1R
1Q
1T
1F
0G
1A
1B
1?
0%
1$
1/
10
1-
#100000
0!
0;
0`
0O
0a
#110000
1!
1;
1`
1O
1a
0v
1u
1b
0f
0g
1k
0q
1r
0w
1{
1^
0]
0R
1S
0W
1E
0F
0A
1@
0<
0$
1#
0/
1.
0*
#120000
0!
0;
0`
0O
0a
#130000
1!
1;
1`
1O
1a
1v
0b
0c
0e
1f
1h
1i
1j
0k
0r
1s
1w
0x
0y
0z
1_
0^
1R
0T
0U
0V
1W
1D
0E
1A
0?
0>
0=
1<
0#
1"
1/
0-
0,
0+
1*
#140000
0!
0;
0`
0O
0a
#150000
1!
1;
1`
1O
1a
0v
0u
0t
1b
1d
0f
1g
0i
0j
1k
1l
0s
0w
1x
1y
0{
0|
0_
1X
0R
0Q
0S
1U
1V
0W
0D
1K
0A
0B
0@
1>
1=
0<
1)
0"
0/
00
0.
1,
1+
0*
#160000
0!
0;
0`
0O
0a
#170000
1!
1;
1`
1O
1a
1v
0b
1c
0d
0g
0h
1i
0k
0l
1m
1w
0y
1z
1{
1|
1Y
0X
1Q
1S
1T
0U
1W
1J
0K
1B
1@
1?
0>
1<
0)
1(
10
1.
1-
0,
1*
#180000
0!
0;
0`
0O
0a
#190000
1!
1;
1`
1O
1a
0v
1u
1b
1f
1g
1h
0i
1k
0m
1n
0w
1y
0z
0{
1Z
0Y
1R
0S
0T
1U
0W
1I
0J
1A
0@
0?
1>
0<
0(
1'
1/
0.
0-
1,
0*
#200000
0!
0;
0`
0O
0a
#210000
1!
1;
1`
1O
1a
1v
0b
0c
1e
0h
1j
0k
0n
1o
1w
0x
1z
1[
0Z
1T
0V
1W
1H
0I
1?
0=
1<
0'
1&
1-
0+
1*
#220000
0!
0;
0`
0O
0a
#230000
1!
1;
1`
1O
1a
0v
0u
1t
1b
1d
0f
1h
0j
0o
1p
1x
0z
0|
1\
0[
0R
0Q
0T
1V
1G
0H
0A
0B
0?
1=
0&
1%
0/
00
0-
1+
#240000
0!
0;
0`
0O
0a
#250000
1!
1;
1`
1O
1a
1v
0b
1c
0d
1f
0h
0p
1q
1z
1|
1]
0\
1R
1Q
1T
1F
0G
1A
1B
1?
0%
1$
1/
10
1-
#260000
0!
0;
0`
0O
0a
#270000
1!
1;
1`
1O
1a
0v
1u
1b
0f
0g
1k
0q
1r
0w
1{
1^
0]
0R
1S
0W
1E
0F
0A
1@
0<
0$
1#
0/
1.
0*
#280000
0!
0;
0`
0O
0a
#290000
1!
1;
1`
1O
1a
1v
0b
0c
0e
1f
1h
1i
1j
0k
0r
1s
1w
0x
0y
0z
1_
0^
1R
0T
0U
0V
1W
1D
0E
1A
0?
0>
0=
1<
0#
1"
1/
0-
0,
0+
1*
#300000
0!
0;
0`
0O
0a
#310000
1!
1;
1`
1O
1a
0v
0u
0t
1b
1d
0f
1g
0i
0j
1k
1l
0s
0w
1x
1y
0{
0|
0_
1X
0R
0Q
0S
1U
1V
0W
0D
1K
0A
0B
0@
1>
1=
0<
1)
0"
0/
00
0.
1,
1+
0*
#320000
0!
0;
0`
0O
0a
#330000
1!
1;
1`
1O
1a
1v
0b
1c
0d
0g
0h
1i
0k
0l
1m
1w
0y
1z
1{
1|
1Y
0X
1Q
1S
1T
0U
1W
1J
0K
1B
1@
1?
0>
1<
0)
1(
10
1.
1-
0,
1*
#340000
0!
0;
0`
0O
0a
#350000
1!
1;
1`
1O
1a
0v
1u
1b
1f
1g
1h
0i
1k
0m
1n
0w
1y
0z
0{
1Z
0Y
1R
0S
0T
1U
0W
1I
0J
1A
0@
0?
1>
0<
0(
1'
1/
0.
0-
1,
0*
#360000
0!
0;
0`
0O
0a
#370000
1!
1;
1`
1O
1a
1v
0b
0c
1e
0h
1j
0k
0n
1o
1w
0x
1z
1[
0Z
1T
0V
1W
1H
0I
1?
0=
1<
0'
1&
1-
0+
1*
#380000
0!
0;
0`
0O
0a
#390000
1!
1;
1`
1O
1a
0v
0u
1t
1b
1d
0f
1h
0j
0o
1p
1x
0z
0|
1\
0[
0R
0Q
0T
1V
1G
0H
0A
0B
0?
1=
0&
1%
0/
00
0-
1+
#400000
0!
0;
0`
0O
0a
#410000
1!
1;
1`
1O
1a
1v
0b
1c
0d
1f
0h
0p
1q
1z
1|
1]
0\
1R
1Q
1T
1F
0G
1A
1B
1?
0%
1$
1/
10
1-
#420000
0!
0;
0`
0O
0a
#430000
1!
1;
1`
1O
1a
0v
1u
1b
0f
0g
1k
0q
1r
0w
1{
1^
0]
0R
1S
0W
1E
0F
0A
1@
0<
0$
1#
0/
1.
0*
#440000
0!
0;
0`
0O
0a
#450000
1!
1;
1`
1O
1a
1v
0b
0c
0e
1f
1h
1i
1j
0k
0r
1s
1w
0x
0y
0z
1_
0^
1R
0T
0U
0V
1W
1D
0E
1A
0?
0>
0=
1<
0#
1"
1/
0-
0,
0+
1*
#460000
0!
0;
0`
0O
0a
#470000
1!
1;
1`
1O
1a
0v
0u
0t
1b
1d
0f
1g
0i
0j
1k
1l
0s
0w
1x
1y
0{
0|
0_
1X
0R
0Q
0S
1U
1V
0W
0D
1K
0A
0B
0@
1>
1=
0<
1)
0"
0/
00
0.
1,
1+
0*
#480000
0!
0;
0`
0O
0a
#490000
1!
1;
1`
1O
1a
1v
0b
1c
0d
0g
0h
1i
0k
0l
1m
1w
0y
1z
1{
1|
1Y
0X
1Q
1S
1T
0U
1W
1J
0K
1B
1@
1?
0>
1<
0)
1(
10
1.
1-
0,
1*
#500000
0!
0;
0`
0O
0a
#510000
1!
1;
1`
1O
1a
0v
1u
1b
1f
1g
1h
0i
1k
0m
1n
0w
1y
0z
0{
1Z
0Y
1R
0S
0T
1U
0W
1I
0J
1A
0@
0?
1>
0<
0(
1'
1/
0.
0-
1,
0*
#520000
0!
0;
0`
0O
0a
#530000
1!
1;
1`
1O
1a
1v
0b
0c
1e
0h
1j
0k
0n
1o
1w
0x
1z
1[
0Z
1T
0V
1W
1H
0I
1?
0=
1<
0'
1&
1-
0+
1*
#540000
0!
0;
0`
0O
0a
#550000
1!
1;
1`
1O
1a
0v
0u
1t
1b
1d
0f
1h
0j
0o
1p
1x
0z
0|
1\
0[
0R
0Q
0T
1V
1G
0H
0A
0B
0?
1=
0&
1%
0/
00
0-
1+
#560000
0!
0;
0`
0O
0a
#570000
1!
1;
1`
1O
1a
1v
0b
1c
0d
1f
0h
0p
1q
1z
1|
1]
0\
1R
1Q
1T
1F
0G
1A
1B
1?
0%
1$
1/
10
1-
#580000
0!
0;
0`
0O
0a
#590000
1!
1;
1`
1O
1a
0v
1u
1b
0f
0g
1k
0q
1r
0w
1{
1^
0]
0R
1S
0W
1E
0F
0A
1@
0<
0$
1#
0/
1.
0*
#600000
0!
0;
0`
0O
0a
#610000
1!
1;
1`
1O
1a
1v
0b
0c
0e
1f
1h
1i
1j
0k
0r
1s
1w
0x
0y
0z
1_
0^
1R
0T
0U
0V
1W
1D
0E
1A
0?
0>
0=
1<
0#
1"
1/
0-
0,
0+
1*
#620000
0!
0;
0`
0O
0a
#630000
1!
1;
1`
1O
1a
0v
0u
0t
1b
1d
0f
1g
0i
0j
1k
1l
0s
0w
1x
1y
0{
0|
0_
1X
0R
0Q
0S
1U
1V
0W
0D
1K
0A
0B
0@
1>
1=
0<
1)
0"
0/
00
0.
1,
1+
0*
#640000
0!
0;
0`
0O
0a
#650000
1!
1;
1`
1O
1a
1v
0b
1c
0d
0g
0h
1i
0k
0l
1m
1w
0y
1z
1{
1|
1Y
0X
1Q
1S
1T
0U
1W
1J
0K
1B
1@
1?
0>
1<
0)
1(
10
1.
1-
0,
1*
#660000
0!
0;
0`
0O
0a
#670000
1!
1;
1`
1O
1a
0v
1u
1b
1f
1g
1h
0i
1k
0m
1n
0w
1y
0z
0{
1Z
0Y
1R
0S
0T
1U
0W
1I
0J
1A
0@
0?
1>
0<
0(
1'
1/
0.
0-
1,
0*
#680000
0!
0;
0`
0O
0a
#690000
1!
1;
1`
1O
1a
1v
0b
0c
1e
0h
1j
0k
0n
1o
1w
0x
1z
1[
0Z
1T
0V
1W
1H
0I
1?
0=
1<
0'
1&
1-
0+
1*
#700000
0!
0;
0`
0O
0a
#710000
1!
1;
1`
1O
1a
0v
0u
1t
1b
1d
0f
1h
0j
0o
1p
1x
0z
0|
1\
0[
0R
0Q
0T
1V
1G
0H
0A
0B
0?
1=
0&
1%
0/
00
0-
1+
#720000
0!
0;
0`
0O
0a
#730000
1!
1;
1`
1O
1a
1v
0b
1c
0d
1f
0h
0p
1q
1z
1|
1]
0\
1R
1Q
1T
1F
0G
1A
1B
1?
0%
1$
1/
10
1-
#740000
0!
0;
0`
0O
0a
#750000
1!
1;
1`
1O
1a
0v
1u
1b
0f
0g
1k
0q
1r
0w
1{
1^
0]
0R
1S
0W
1E
0F
0A
1@
0<
0$
1#
0/
1.
0*
#760000
0!
0;
0`
0O
0a
#770000
1!
1;
1`
1O
1a
1v
0b
0c
0e
1f
1h
1i
1j
0k
0r
1s
1w
0x
0y
0z
1_
0^
1R
0T
0U
0V
1W
1D
0E
1A
0?
0>
0=
1<
0#
1"
1/
0-
0,
0+
1*
#780000
0!
0;
0`
0O
0a
#790000
1!
1;
1`
1O
1a
0v
0u
0t
1b
1d
0f
1g
0i
0j
1k
1l
0s
0w
1x
1y
0{
0|
0_
1X
0R
0Q
0S
1U
1V
0W
0D
1K
0A
0B
0@
1>
1=
0<
1)
0"
0/
00
0.
1,
1+
0*
#800000
0!
0;
0`
0O
0a
#810000
1!
1;
1`
1O
1a
1v
0b
1c
0d
0g
0h
1i
0k
0l
1m
1w
0y
1z
1{
1|
1Y
0X
1Q
1S
1T
0U
1W
1J
0K
1B
1@
1?
0>
1<
0)
1(
10
1.
1-
0,
1*
#820000
0!
0;
0`
0O
0a
#830000
1!
1;
1`
1O
1a
0v
1u
1b
1f
1g
1h
0i
1k
0m
1n
0w
1y
0z
0{
1Z
0Y
1R
0S
0T
1U
0W
1I
0J
1A
0@
0?
1>
0<
0(
1'
1/
0.
0-
1,
0*
#840000
0!
0;
0`
0O
0a
#850000
1!
1;
1`
1O
1a
1v
0b
0c
1e
0h
1j
0k
0n
1o
1w
0x
1z
1[
0Z
1T
0V
1W
1H
0I
1?
0=
1<
0'
1&
1-
0+
1*
#860000
0!
0;
0`
0O
0a
#870000
1!
1;
1`
1O
1a
0v
0u
1t
1b
1d
0f
1h
0j
0o
1p
1x
0z
0|
1\
0[
0R
0Q
0T
1V
1G
0H
0A
0B
0?
1=
0&
1%
0/
00
0-
1+
#880000
0!
0;
0`
0O
0a
#890000
1!
1;
1`
1O
1a
1v
0b
1c
0d
1f
0h
0p
1q
1z
1|
1]
0\
1R
1Q
1T
1F
0G
1A
1B
1?
0%
1$
1/
10
1-
#900000
0!
0;
0`
0O
0a
#910000
1!
1;
1`
1O
1a
0v
1u
1b
0f
0g
1k
0q
1r
0w
1{
1^
0]
0R
1S
0W
1E
0F
0A
1@
0<
0$
1#
0/
1.
0*
#920000
0!
0;
0`
0O
0a
#930000
1!
1;
1`
1O
1a
1v
0b
0c
0e
1f
1h
1i
1j
0k
0r
1s
1w
0x
0y
0z
1_
0^
1R
0T
0U
0V
1W
1D
0E
1A
0?
0>
0=
1<
0#
1"
1/
0-
0,
0+
1*
#940000
0!
0;
0`
0O
0a
#950000
1!
1;
1`
1O
1a
0v
0u
0t
1b
1d
0f
1g
0i
0j
1k
1l
0s
0w
1x
1y
0{
0|
0_
1X
0R
0Q
0S
1U
1V
0W
0D
1K
0A
0B
0@
1>
1=
0<
1)
0"
0/
00
0.
1,
1+
0*
#960000
0!
0;
0`
0O
0a
#970000
1!
1;
1`
1O
1a
1v
0b
1c
0d
0g
0h
1i
0k
0l
1m
1w
0y
1z
1{
1|
1Y
0X
1Q
1S
1T
0U
1W
1J
0K
1B
1@
1?
0>
1<
0)
1(
10
1.
1-
0,
1*
#980000
0!
0;
0`
0O
0a
#990000
1!
1;
1`
1O
1a
0v
1u
1b
1f
1g
1h
0i
1k
0m
1n
0w
1y
0z
0{
1Z
0Y
1R
0S
0T
1U
0W
1I
0J
1A
0@
0?
1>
0<
0(
1'
1/
0.
0-
1,
0*
