数电_实验报告/MailChosen/simulation/qsim/Mail.msim.vcd
$comment
	File created using the following command:
		vcd file Mail.msim.vcd -direction
$end
$date
	Sun Jun 24 19:25:13 2018
$end
$version
	ModelSim Version 10.5b
$end
$timescale
	1ps
$end

$scope module clk_source_vhd_vec_tst $end
$var wire 1 ! clk $end
$var wire 1 " clk_50m $end

$scope module i1 $end
$var wire 1 # gnd $end
$var wire 1 $ vcc $end
$var wire 1 % unknown $end
$var wire 1 & devoe $end
$var wire 1 ' devclrn $end
$var wire 1 ( devpor $end
$var wire 1 ) ww_devoe $end
$var wire 1 * ww_devclrn $end
$var wire 1 + ww_devpor $end
$var wire 1 , ww_clk_50m $end
$var wire 1 - ww_clk $end
$var wire 1 . \clk_50m~inputclkctrl_INCLK_bus\ [3] $end
$var wire 1 / \clk_50m~inputclkctrl_INCLK_bus\ [2] $end
$var wire 1 0 \clk_50m~inputclkctrl_INCLK_bus\ [1] $end
$var wire 1 1 \clk_50m~inputclkctrl_INCLK_bus\ [0] $end
$var wire 1 2 \clk~output_o\ $end
$var wire 1 3 \clk_50m~input_o\ $end
$var wire 1 4 \clk_50m~inputclkctrl_outclk\ $end
$var wire 1 5 \counter[0]~72_combout\ $end
$var wire 1 6 \counter[1]~24_combout\ $end
$var wire 1 7 \counter[1]~25\ $end
$var wire 1 8 \counter[2]~26_combout\ $end
$var wire 1 9 \counter[2]~27\ $end
$var wire 1 : \counter[3]~28_combout\ $end
$var wire 1 ; \counter[3]~29\ $end
$var wire 1 < \counter[4]~30_combout\ $end
$var wire 1 = \counter[4]~31\ $end
$var wire 1 > \counter[5]~32_combout\ $end
$var wire 1 ? \counter[5]~33\ $end
$var wire 1 @ \counter[6]~34_combout\ $end
$var wire 1 A \counter[6]~35\ $end
$var wire 1 B \counter[7]~36_combout\ $end
$var wire 1 C \counter[7]~37\ $end
$var wire 1 D \counter[8]~38_combout\ $end
$var wire 1 E \counter[8]~39\ $end
$var wire 1 F \counter[9]~40_combout\ $end
$var wire 1 G \counter[9]~41\ $end
$var wire 1 H \counter[10]~42_combout\ $end
$var wire 1 I \counter[10]~43\ $end
$var wire 1 J \counter[11]~44_combout\ $end
$var wire 1 K \counter[11]~45\ $end
$var wire 1 L \counter[12]~46_combout\ $end
$var wire 1 M \counter[12]~47\ $end
$var wire 1 N \counter[13]~48_combout\ $end
$var wire 1 O \counter[13]~49\ $end
$var wire 1 P \counter[14]~50_combout\ $end
$var wire 1 Q \counter[14]~51\ $end
$var wire 1 R \counter[15]~52_combout\ $end
$var wire 1 S \counter[15]~53\ $end
$var wire 1 T \counter[16]~54_combout\ $end
$var wire 1 U \counter[16]~55\ $end
$var wire 1 V \counter[17]~56_combout\ $end
$var wire 1 W \counter[17]~57\ $end
$var wire 1 X \counter[18]~58_combout\ $end
$var wire 1 Y \counter[18]~59\ $end
$var wire 1 Z \counter[19]~60_combout\ $end
$var wire 1 [ \counter[19]~61\ $end
$var wire 1 \ \counter[20]~62_combout\ $end
$var wire 1 ] \counter[20]~63\ $end
$var wire 1 ^ \counter[21]~64_combout\ $end
$var wire 1 _ \counter[21]~65\ $end
$var wire 1 ` \counter[22]~66_combout\ $end
$var wire 1 a \counter[22]~67\ $end
$var wire 1 b \counter[23]~68_combout\ $end
$var wire 1 c \counter[23]~69\ $end
$var wire 1 d \counter[24]~70_combout\ $end
$var wire 1 e \Equal0~2_combout\ $end
$var wire 1 f \Equal0~1_combout\ $end
$var wire 1 g \Equal0~0_combout\ $end
$var wire 1 h \Equal0~3_combout\ $end
$var wire 1 i \Equal0~5_combout\ $end
$var wire 1 j \Equal0~4_combout\ $end
$var wire 1 k \Equal0~6_combout\ $end
$var wire 1 l \Equal0~7_combout\ $end
$var wire 1 m \clk_temp~0_combout\ $end
$var wire 1 n counter [24] $end
$var wire 1 o counter [23] $end
$var wire 1 p counter [22] $end
$var wire 1 q counter [21] $end
$var wire 1 r counter [20] $end
$var wire 1 s counter [19] $end
$var wire 1 t counter [18] $end
$var wire 1 u counter [17] $end
$var wire 1 v counter [16] $end
$var wire 1 w counter [15] $end
$var wire 1 x counter [14] $end
$var wire 1 y counter [13] $end
$var wire 1 z counter [12] $end
$var wire 1 { counter [11] $end
$var wire 1 | counter [10] $end
$var wire 1 } counter [9] $end
$var wire 1 ~ counter [8] $end
$var wire 1 !! counter [7] $end
$var wire 1 "! counter [6] $end
$var wire 1 #! counter [5] $end
$var wire 1 $! counter [4] $end
$var wire 1 %! counter [3] $end
$var wire 1 &! counter [2] $end
$var wire 1 '! counter [1] $end
$var wire 1 (! counter [0] $end
$var wire 1 )! \ALT_INV_Equal0~7_combout\ $end
$upscope $end
$upscope $end
$enddefinitions $end
#0
$dumpvars
x!
0"
0#
1$
x%
1&
1'
1(
1)
1*
1+
0,
x-
x2
03
04
15
06
07
08
19
0:
0;
0<
1=
0>
0?
0@
1A
0B
0C
0D
1E
0F
0G
0H
1I
0J
0K
0L
1M
0N
0O
0P
1Q
0R
0S
0T
1U
0V
0W
0X
1Y
0Z
0[
0\
1]
0^
0_
0`
1a
0b
0c
0d
0e
0f
0g
0h
0i
0j
0k
0l
xm
1)!
0n
0o
0p
0q
0r
0s
0t
0u
0v
0w
0x
0y
0z
0{
0|
0}
0~
0!!
0"!
0#!
0$!
0%!
0&!
0'!
0(!
1.
1/
10
01
$end
#15000
1"
1,
13
11
14
1(!
05
16
#20000
0"
0,
03
01
04
#35000
1"
1,
13
11
14
0(!
1'!
15
#40000
0"
0,
03
01
04
#45000
1"
1,
13
11
14
1(!
05
06
17
18
#55000
0"
0,
03
01
04
#60000
1"
1,
13
11
14
0(!
0'!
1&!
08
09
15
07
18
19
1:
0:
#65000
0"
0,
03
01
04
#70000
1"
1,
13
11
14
1(!
05
16
#75000
0"
0,
03
01
04
#80000
1"
1,
13
11
14
0(!
1'!
15
#95000
0"
0,
03
01
04
#115000
1"
1,
13
11
14
1(!
05
06
17
08
09
1:
#125000
0"
0,
03
01
04
#130000
1"
1,
13
11
14
0(!
0'!
0&!
1%!
0:
1;
18
19
15
07
08
1:
0;
1<
0<
#135000
0"
0,
03
01
04
#145000
1"
1,
13
11
14
1(!
05
16
#150000
0"
0,
03
01
04
#155000
1"
1,
13
11
14
0(!
1'!
15
#160000
0"
0,
03
01
04
#165000
1"
1,
13
11
14
1(!
05
06
17
18
#170000
0"
0,
03
01
04
#175000
1"
1,
13
11
14
0(!
0'!
1&!
08
09
15
07
18
19
0:
1;
1<
1:
0;
0<
#205000
0"
0,
03
01
04
#215000
1"
1,
13
11
14
1(!
05
16
#225000
0"
0,
03
01
04
#230000
1"
1,
13
11
14
0(!
1'!
15
#250000
0"
0,
03
01
04
#270000
1"
1,
13
11
14
1(!
05
06
17
08
09
0:
1;
1<
#290000
0"
0,
03
01
04
#295000
1"
1,
13
11
14
0(!
0'!
0&!
0%!
1$!
0<
0=
1:
0;
18
19
15
07
08
0:
1<
1=
1>
0>
#310000
0"
0,
03
01
04
#315000
1"
1,
13
11
14
1(!
05
16
#335000
0"
0,
03
01
04
#340000
1"
1,
13
11
14
0(!
1'!
15
#345000
0"
0,
03
01
04
#370000
1"
1,
13
11
14
1(!
05
06
17
18
#380000
0"
0,
03
01
04
#400000
1"
1,
13
11
14
0(!
0'!
1&!
08
09
15
07
18
19
1:
0:
#410000
0"
0,
03
01
04
#425000
1"
1,
13
11
14
1(!
05
16
#430000
0"
0,
03
01
04
#440000
1"
1,
13
11
14
0(!
1'!
15
#445000
0"
0,
03
01
04
#450000
1"
1,
13
11
14
1(!
05
06
17
08
09
1:
#455000
0"
0,
03
01
04
#460000
1"
1,
13
11
14
0(!
0'!
0&!
1%!
0:
1;
18
19
15
07
08
1:
0;
0<
0=
1>
1<
1=
0>
#470000
0"
0,
03
01
04
#480000
1"
1,
13
11
14
1(!
05
16
#485000
0"
0,
03
01
04
#490000
1"
1,
13
11
14
0(!
1'!
15
#500000
0"
0,
03
01
04
#520000
1"
1,
13
11
14
1(!
05
06
17
18
#530000
0"
0,
03
01
04
#550000
1"
1,
13
11
14
0(!
0'!
1&!
08
09
15
07
18
19
0:
1;
0<
0=
1:
0;
1<
1=
1>
0>
#555000
0"
0,
03
01
04
#560000
1"
1,
13
11
14
1(!
05
16
#565000
0"
0,
03
01
04
#580000
1"
1,
13
11
14
0(!
1'!
15
#585000
0"
0,
03
01
04
#590000
1"
1,
13
11
14
1(!
05
06
17
08
09
0:
1;
0<
0=
1>
#595000
0"
0,
03
01
04
#600000
1"
1,
13
11
14
0(!
0'!
0&!
0%!
0$!
1#!
0>
1?
1<
1=
1:
0;
18
19
15
07
08
0:
0<
1>
0?
1@
0@
#605000
0"
0,
03
01
04
#620000
1"
1,
13
11
14
1(!
05
16
#625000
0"
0,
03
01
04
#630000
1"
1,
13
11
14
0(!
1'!
15
#640000
0"
0,
03
01
04
#645000
1"
1,
13
11
14
1(!
05
06
17
18
#655000
0"
0,
03
01
04
#660000
1"
1,
13
11
14
0(!
0'!
1&!
08
09
15
07
18
19
1:
0:
#665000
0"
0,
03
01
04
#670000
1"
1,
13
11
14
1(!
05
16
#685000
0"
0,
03
01
04
#690000
1"
1,
13
11
14
0(!
1'!
15
#695000
0"
0,
03
01
04
#710000
1"
1,
13
11
14
1(!
05
06
17
08
09
1:
#730000
0"
0,
03
01
04
#740000
1"
1,
13
11
14
0(!
0'!
0&!
1%!
0:
1;
18
19
15
07
08
1:
0;
1<
0<
#745000
0"
0,
03
01
04
#780000
1"
1,
13
11
14
1(!
05
16
#785000
0"
0,
03
01
04
#825000
1"
1,
13
11
14
0(!
1'!
15
#830000
0"
0,
03
01
04
#845000
1"
1,
13
11
14
1(!
05
06
17
18
#860000
0"
0,
03
01
04
#865000
1"
1,
13
11
14
0(!
0'!
1&!
08
09
15
07
18
19
0:
1;
1<
1:
0;
0<
#870000
0"
0,
03
01
04
#880000
1"
1,
13
11
14
1(!
05
16
#895000
0"
0,
03
01
04
#905000
1"
1,
13
11
14
0(!
1'!
15
#910000
0"
0,
03
01
04
#920000
1"
1,
13
11
14
1(!
05
06
17
08
09
0:
1;
1<
#930000
0"
0,
03
01
04
#935000
1"
1,
13
11
14
0(!
0'!
0&!
0%!
1$!
0<
0=
1:
0;
18
19
15
07
08
0:
1<
1=
0>
1?
1@
1>
0?
0@
#950000
0"
0,
03
01
04
#955000
1"
1,
13
11
14
1(!
05
16
#970000
0"
0,
03
01
04
#980000
1"
1,
13
11
14
0(!
1'!
15
#985000
0"
0,
03
01
04
