数电_实验报告/zidongyoupiaoshouhuojishejji/simulation/qsim/youpiao_shoupiaoji.msim.vcd
$comment
	File created using the following command:
		vcd file youpiao_shoupiaoji.msim.vcd -direction
$end
$date
	Sat Jul 07 16:11:18 2018
$end
$version
	ModelSim Version 10.5b
$end
$timescale
	1ps
$end

$scope module piaojiasheding_vhd_vec_tst $end
$var wire 1 ! clk $end
$var wire 1 " en $end
$var wire 1 # q [4] $end
$var wire 1 $ q [3] $end
$var wire 1 % q [2] $end
$var wire 1 & q [1] $end
$var wire 1 ' q [0] $end
$var wire 1 ( rd1 $end

$scope module i1 $end
$var wire 1 ) gnd $end
$var wire 1 * vcc $end
$var wire 1 + unknown $end
$var wire 1 , devoe $end
$var wire 1 - devclrn $end
$var wire 1 . devpor $end
$var wire 1 / ww_devoe $end
$var wire 1 0 ww_devclrn $end
$var wire 1 1 ww_devpor $end
$var wire 1 2 ww_clk $end
$var wire 1 3 ww_en $end
$var wire 1 4 ww_rd1 $end
$var wire 1 5 ww_q [4] $end
$var wire 1 6 ww_q [3] $end
$var wire 1 7 ww_q [2] $end
$var wire 1 8 ww_q [1] $end
$var wire 1 9 ww_q [0] $end
$var wire 1 : \rd1~inputclkctrl_INCLK_bus\ [3] $end
$var wire 1 ; \rd1~inputclkctrl_INCLK_bus\ [2] $end
$var wire 1 < \rd1~inputclkctrl_INCLK_bus\ [1] $end
$var wire 1 = \rd1~inputclkctrl_INCLK_bus\ [0] $end
$var wire 1 > \clk~inputclkctrl_INCLK_bus\ [3] $end
$var wire 1 ? \clk~inputclkctrl_INCLK_bus\ [2] $end
$var wire 1 @ \clk~inputclkctrl_INCLK_bus\ [1] $end
$var wire 1 A \clk~inputclkctrl_INCLK_bus\ [0] $end
$var wire 1 B \q[0]~output_o\ $end
$var wire 1 C \q[1]~output_o\ $end
$var wire 1 D \q[2]~output_o\ $end
$var wire 1 E \q[3]~output_o\ $end
$var wire 1 F \q[4]~output_o\ $end
$var wire 1 G \clk~input_o\ $end
$var wire 1 H \clk~inputclkctrl_outclk\ $end
$var wire 1 I \qn[0]~5_combout\ $end
$var wire 1 J \rd1~input_o\ $end
$var wire 1 K \rd1~inputclkctrl_outclk\ $end
$var wire 1 L \en~input_o\ $end
$var wire 1 M \qn[0]~6\ $end
$var wire 1 N \qn[1]~7_combout\ $end
$var wire 1 O \qn[1]~8\ $end
$var wire 1 P \qn[2]~9_combout\ $end
$var wire 1 Q \qn[2]~10\ $end
$var wire 1 R \qn[3]~11_combout\ $end
$var wire 1 S \qn[3]~12\ $end
$var wire 1 T \qn[4]~13_combout\ $end
$var wire 1 U qn [4] $end
$var wire 1 V qn [3] $end
$var wire 1 W qn [2] $end
$var wire 1 X qn [1] $end
$var wire 1 Y qn [0] $end
$var wire 1 Z \ALT_INV_en~input_o\ $end
$upscope $end
$upscope $end
$enddefinitions $end
#0
$dumpvars
0!
0"
0(
0)
1*
x+
1,
1-
1.
1/
10
11
02
03
04
0B
0C
0D
0E
0F
0G
0H
1I
0J
0K
0L
0M
0N
1O
0P
0Q
0R
1S
0T
1Z
0#
0$
0%
0&
0'
05
06
07
08
09
0U
0V
0W
0X
0Y
1>
1?
1@
0A
1:
1;
1<
0=
$end
#10000
1!
12
1G
1A
1H
#20000
0!
1"
02
13
1L
0G
0Z
0A
0H
#30000
1!
12
1G
1A
1H
#40000
0!
0"
02
03
0L
0G
1Z
0A
0H
#50000
1!
12
1G
1A
1H
#60000
0!
1"
02
13
1L
0G
0Z
0A
0H
#70000
1!
12
1G
1A
1H
#80000
0!
0"
02
03
0L
0G
1Z
0A
0H
#90000
1!
12
1G
1A
1H
#100000
0!
1"
02
13
1L
0G
0Z
0A
0H
#110000
1!
12
1G
1A
1H
#120000
0!
0"
02
03
0L
0G
1Z
0A
0H
#130000
1!
12
1G
1A
1H
#140000
0!
1"
02
13
1L
0G
0Z
0A
0H
#150000
1!
12
1G
1A
1H
#160000
0!
0"
02
03
0L
0G
1Z
0A
0H
#170000
1!
12
1G
1A
1H
#180000
0!
1"
02
13
1L
0G
0Z
0A
0H
#190000
1!
12
1G
1A
1H
#200000
0!
0"
02
03
0L
0G
1Z
0A
0H
#210000
1!
12
1G
1A
1H
#220000
0!
1"
02
13
1L
0G
0Z
0A
0H
#230000
1!
12
1G
1A
1H
#240000
0!
0"
02
03
0L
0G
1Z
0A
0H
#250000
1!
12
1G
1A
1H
#260000
0!
1"
02
13
1L
0G
0Z
0A
0H
#270000
1!
12
1G
1A
1H
#280000
0!
0"
02
03
0L
0G
1Z
0A
0H
#290000
1!
12
1G
1A
1H
#300000
0!
1"
02
13
1L
0G
0Z
0A
0H
#310000
1!
12
1G
1A
1H
#320000
0!
0"
02
03
0L
0G
1Z
0A
0H
#330000
1!
12
1G
1A
1H
#340000
0!
1"
02
13
1L
0G
0Z
0A
0H
#350000
1!
12
1G
1A
1H
#360000
0!
0"
02
03
0L
0G
1Z
0A
0H
#370000
1!
12
1G
1A
1H
#380000
0!
1"
02
13
1L
0G
0Z
0A
0H
#390000
1!
12
1G
1A
1H
#400000
0!
0"
02
03
0L
0G
1Z
0A
0H
#410000
1!
12
1G
1A
1H
#420000
0!
1"
02
13
1L
0G
0Z
0A
0H
#430000
1!
12
1G
1A
1H
#440000
0!
0"
02
03
0L
0G
1Z
0A
0H
#450000
1!
12
1G
1A
1H
#460000
0!
1"
02
13
1L
0G
0Z
0A
0H
#470000
1!
12
1G
1A
1H
#480000
0!
0"
02
03
0L
0G
1Z
0A
0H
#490000
1!
12
1G
1A
1H
#500000
0!
1"
02
13
1L
0G
0Z
0A
0H
#510000
1!
12
1G
1A
1H
#520000
0!
0"
02
03
0L
0G
1Z
0A
0H
#530000
1!
12
1G
1A
1H
#540000
0!
1"
02
13
1L
0G
0Z
0A
0H
#550000
1!
12
1G
1A
1H
#560000
0!
0"
02
03
0L
0G
1Z
0A
0H
#570000
1!
12
1G
1A
1H
#580000
0!
1"
02
13
1L
0G
0Z
0A
0H
#590000
1!
12
1G
1A
1H
#600000
0!
0"
02
03
0L
0G
1Z
0A
0H
#610000
1!
12
1G
1A
1H
#620000
0!
1"
02
13
1L
0G
0Z
0A
0H
#630000
1!
12
1G
1A
1H
#640000
0!
0"
02
03
0L
0G
1Z
0A
0H
#650000
1!
12
1G
1A
1H
#660000
0!
1"
02
13
1L
0G
0Z
0A
0H
#670000
1!
12
1G
1A
1H
#680000
0!
0"
02
03
0L
0G
1Z
0A
0H
#690000
1!
12
1G
1A
1H
#700000
0!
1"
02
13
1L
0G
0Z
0A
0H
#710000
1!
12
1G
1A
1H
#720000
0!
0"
02
03
0L
0G
1Z
0A
0H
#730000
1!
12
1G
1A
1H
#740000
0!
1"
02
13
1L
0G
0Z
0A
0H
#750000
1!
12
1G
1A
1H
#760000
0!
0"
02
03
0L
0G
1Z
0A
0H
#770000
1!
12
1G
1A
1H
#780000
0!
1"
02
13
1L
0G
0Z
0A
0H
#790000
1!
12
1G
1A
1H
#800000
0!
0"
02
03
0L
0G
1Z
0A
0H
#810000
1!
12
1G
1A
1H
#820000
0!
1"
02
13
1L
0G
0Z
0A
0H
#830000
1!
12
1G
1A
1H
#840000
0!
0"
02
03
0L
0G
1Z
0A
0H
#850000
1!
12
1G
1A
1H
#860000
0!
1"
02
13
1L
0G
0Z
0A
0H
#870000
1!
12
1G
1A
1H
#880000
0!
0"
02
03
0L
0G
1Z
0A
0H
#890000
1!
12
1G
1A
1H
#900000
0!
1"
02
13
1L
0G
0Z
0A
0H
#910000
1!
12
1G
1A
1H
#920000
0!
0"
02
03
0L
0G
1Z
0A
0H
#930000
1!
12
1G
1A
1H
#940000
0!
1"
02
13
1L
0G
0Z
0A
0H
#950000
1!
12
1G
1A
1H
#960000
0!
0"
02
03
0L
0G
1Z
0A
0H
#970000
1!
12
1G
1A
1H
#980000
0!
1"
02
13
1L
0G
0Z
0A
0H
#990000
1!
12
1G
1A
1H
